<svg xmlns="http://www.w3.org/2000/svg" viewBox="-1 -1 37 32">
  <g class="corentin">
    <ellipse class="corps" fill="#fff" stroke="#000" cx="30" cy="15" rx="30" ry="15" clip-path="url(#where-is-the-rest-of-corentin)"/>
    <path class="head" fill="#fff" stroke="#000"
          d="M 20 1
             A 15 15 0 0 1 20 29"/>
    <circle class="oeil" fill="#fff" stroke="#000" cx="15" cy="7" r="3"/>
    <circle class="oeil_dedans" fill="#000" stroke="#000" cx="15" cy="7" r="1"/>
    <path class="bouche_fermee" fill="#fff" stroke="#000"
          d="M 0 15
             L 15 15"/>
    <ellipse class="bouche_ouverte" fill="#fff" stroke="#000" cx="0" cy="15" rx="15" ry="5" clip-path="url(#where-is-the-rest-of-the-bouche-of-corentin)"/>
  </g>
  <clipPath id="where-is-the-rest-of-corentin">
    <rect x="-5" y="-1" width="40" height="32"/>
  </clipPath>
  <clipPath id="where-is-the-rest-of-the-bouche-of-corentin">
    <rect x="-1" y="9" width="17" height="12"/>
  </clipPath>
</svg>
