<svg xmlns="http://www.w3.org/2000/svg" viewBox="-1 -1 122 122">
  <g class="siege">
    <path fill="#404040" stroke="#000"
          d="M 120 12
             C 120 0, 90 0, 90 7
             L 80 62
             C 80 62, 80 72, 70 72
             L 0 82
             A 40 10 0 0 1 40 92
             L 95 92
             A 20 20 0 0 1 105 72
             L 120 12"/>
    <rect fill="#000" x="35" y="110" height="10" width="50"/>
    <rect fill="#000" x="50" y="92" height="20" width="10"/>
  </g>
</svg>
