<svg xmlns="http://www.w3.org/2000/svg" viewBox="-1 -1 232 32">
  <rect class="terre" fill="url(#terre)" stroke="#000" x="0" y="0" width="230" height="30"/>
  <pattern id="terre" width="0.25" height="1">
    <rect fill="#606060" stroke="transparent" x="0" y="0" width="60" height="30"/>
    <circle cx="5" cy="5" r="2"/>
    <circle cx="42" cy="10" r="1"/>
    <circle cx="17" cy="12" r="1"/>
    <circle cx="22" cy="7" r="1"/>
    <circle cx="47" cy="15" r="2"/>
    <circle cx="30" cy="20" r="3"/>
    <circle cx="12" cy="20" r="2"/>
    <circle cx="5" cy="25" r="2"/>
    <circle cx="34" cy="22" r="1"/>
    <circle cx="55" cy="27" r="1"/>
  </pattern>
</svg> 
