{
  "notes": [
    {
      "duration": 0.5,
      "durationTicks": 960,
      "midi": 72,
      "name": "C5",
      "ticks": 0,
      "time": 0,
      "velocity": 0.6692913385826772
    },
    {
      "duration": 0.5,
      "durationTicks": 960,
      "midi": 72,
      "name": "C5",
      "ticks": 960,
      "time": 0.5,
      "velocity": 0.7480314960629921
    },
    {
      "duration": 0.5,
      "durationTicks": 960,
      "midi": 72,
      "name": "C5",
      "ticks": 1920,
      "time": 1,
      "velocity": 0.7952755905511811
    },
    {
      "duration": 0.5,
      "durationTicks": 960,
      "midi": 74,
      "name": "D5",
      "ticks": 2880,
      "time": 1.5,
      "velocity": 0.8346456692913385
    },
    {
      "duration": 1,
      "durationTicks": 1920,
      "midi": 76,
      "name": "E5",
      "ticks": 3840,
      "time": 2,
      "velocity": 0.8267716535433071
    },
    {
      "duration": 1,
      "durationTicks": 1920,
      "midi": 74,
      "name": "D5",
      "ticks": 5760,
      "time": 3,
      "velocity": 0.7559055118110236
    },
    {
      "duration": 0.5,
      "durationTicks": 960,
      "midi": 72,
      "name": "C5",
      "ticks": 7680,
      "time": 4,
      "velocity": 0.6929133858267716
    },
    {
      "duration": 0.5,
      "durationTicks": 960,
      "midi": 76,
      "name": "E5",
      "ticks": 8640,
      "time": 4.5,
      "velocity": 0.8661417322834646
    },
    {
      "duration": 0.5,
      "durationTicks": 960,
      "midi": 74,
      "name": "D5",
      "ticks": 9600,
      "time": 5,
      "velocity": 0.7007874015748031
    },
    {
      "duration": 0.5,
      "durationTicks": 960,
      "midi": 74,
      "name": "D5",
      "ticks": 10560,
      "time": 5.5,
      "velocity": 0.7874015748031497
    },
    {
      "duration": 2,
      "durationTicks": 3840,
      "midi": 72,
      "name": "C5",
      "ticks": 11520,
      "time": 6,
      "velocity": 0.7007874015748031
    },
    {
      "duration": 0.5,
      "durationTicks": 960,
      "midi": 72,
      "name": "C5",
      "ticks": 15360,
      "time": 8,
      "velocity": 0.7559055118110236
    },
    {
      "duration": 0.5,
      "durationTicks": 960,
      "midi": 72,
      "name": "C5",
      "ticks": 16320,
      "time": 8.5,
      "velocity": 0.7559055118110236
    },
    {
      "duration": 0.5,
      "durationTicks": 960,
      "midi": 72,
      "name": "C5",
      "ticks": 17280,
      "time": 9,
      "velocity": 0.7637795275590551
    },
    {
      "duration": 0.5,
      "durationTicks": 960,
      "midi": 74,
      "name": "D5",
      "ticks": 18240,
      "time": 9.5,
      "velocity": 0.8188976377952756
    },
    {
      "duration": 1,
      "durationTicks": 1920,
      "midi": 76,
      "name": "E5",
      "ticks": 19200,
      "time": 10,
      "velocity": 0.8346456692913385
    },
    {
      "duration": 1,
      "durationTicks": 1920,
      "midi": 74,
      "name": "D5",
      "ticks": 21120,
      "time": 11,
      "velocity": 0.7165354330708661
    },
    {
      "duration": 0.5,
      "durationTicks": 960,
      "midi": 72,
      "name": "C5",
      "ticks": 23040,
      "time": 12,
      "velocity": 0.7165354330708661
    },
    {
      "duration": 0.5,
      "durationTicks": 960,
      "midi": 76,
      "name": "E5",
      "ticks": 24000,
      "time": 12.5,
      "velocity": 0.84251968503937
    },
    {
      "duration": 0.5,
      "durationTicks": 960,
      "midi": 74,
      "name": "D5",
      "ticks": 24960,
      "time": 13,
      "velocity": 0.7244094488188977
    },
    {
      "duration": 0.5,
      "durationTicks": 960,
      "midi": 74,
      "name": "D5",
      "ticks": 25920,
      "time": 13.5,
      "velocity": 0.7637795275590551
    },
    {
      "duration": 2,
      "durationTicks": 3840,
      "midi": 72,
      "name": "C5",
      "ticks": 26880,
      "time": 14,
      "velocity": 0.7165354330708661
    },
    {
      "duration": 0.5,
      "durationTicks": 960,
      "midi": 74,
      "name": "D5",
      "ticks": 30720,
      "time": 16,
      "velocity": 0.8188976377952756
    },
    {
      "duration": 0.5,
      "durationTicks": 960,
      "midi": 74,
      "name": "D5",
      "ticks": 31680,
      "time": 16.5,
      "velocity": 0.7716535433070866
    },
    {
      "duration": 0.5,
      "durationTicks": 960,
      "midi": 74,
      "name": "D5",
      "ticks": 32640,
      "time": 17,
      "velocity": 0.7716535433070866
    },
    {
      "duration": 0.5,
      "durationTicks": 960,
      "midi": 74,
      "name": "D5",
      "ticks": 33600,
      "time": 17.5,
      "velocity": 0.7559055118110236
    },
    {
      "duration": 1,
      "durationTicks": 1920,
      "midi": 69,
      "name": "A4",
      "ticks": 34560,
      "time": 18,
      "velocity": 0.6850393700787402
    },
    {
      "duration": 1,
      "durationTicks": 1920,
      "midi": 69,
      "name": "A4",
      "ticks": 36480,
      "time": 19,
      "velocity": 0.7559055118110236
    },
    {
      "duration": 0.5,
      "durationTicks": 960,
      "midi": 74,
      "name": "D5",
      "ticks": 38400,
      "time": 20,
      "velocity": 0.8740157480314961
    },
    {
      "duration": 0.5,
      "durationTicks": 960,
      "midi": 72,
      "name": "C5",
      "ticks": 39360,
      "time": 20.5,
      "velocity": 0.7086614173228346
    },
    {
      "duration": 0.5,
      "durationTicks": 960,
      "midi": 71,
      "name": "B4",
      "ticks": 40320,
      "time": 21,
      "velocity": 0.7401574803149606
    },
    {
      "duration": 0.5,
      "durationTicks": 960,
      "midi": 69,
      "name": "A4",
      "ticks": 41280,
      "time": 21.5,
      "velocity": 0.7559055118110236
    },
    {
      "duration": 2,
      "durationTicks": 3840,
      "midi": 67,
      "name": "G4",
      "ticks": 42240,
      "time": 22,
      "velocity": 0.7401574803149606
    },
    {
      "duration": 0.5,
      "durationTicks": 960,
      "midi": 72,
      "name": "C5",
      "ticks": 46080,
      "time": 24,
      "velocity": 0.84251968503937
    },
    {
      "duration": 0.5,
      "durationTicks": 960,
      "midi": 72,
      "name": "C5",
      "ticks": 47040,
      "time": 24.5,
      "velocity": 0.8110236220472441
    },
    {
      "duration": 0.5,
      "durationTicks": 960,
      "midi": 72,
      "name": "C5",
      "ticks": 48000,
      "time": 25,
      "velocity": 0.7716535433070866
    },
    {
      "duration": 0.5,
      "durationTicks": 960,
      "midi": 74,
      "name": "D5",
      "ticks": 48960,
      "time": 25.5,
      "velocity": 0.8110236220472441
    },
    {
      "duration": 1,
      "durationTicks": 1920,
      "midi": 76,
      "name": "E5",
      "ticks": 49920,
      "time": 26,
      "velocity": 0.8110236220472441
    },
    {
      "duration": 1,
      "durationTicks": 1920,
      "midi": 74,
      "name": "D5",
      "ticks": 51840,
      "time": 27,
      "velocity": 0.7559055118110236
    },
    {
      "duration": 0.5,
      "durationTicks": 960,
      "midi": 72,
      "name": "C5",
      "ticks": 53760,
      "time": 28,
      "velocity": 0.7244094488188977
    },
    {
      "duration": 0.5,
      "durationTicks": 960,
      "midi": 76,
      "name": "E5",
      "ticks": 54720,
      "time": 28.5,
      "velocity": 0.8346456692913385
    },
    {
      "duration": 0.5,
      "durationTicks": 960,
      "midi": 74,
      "name": "D5",
      "ticks": 55680,
      "time": 29,
      "velocity": 0.7401574803149606
    },
    {
      "duration": 0.5,
      "durationTicks": 960,
      "midi": 74,
      "name": "D5",
      "ticks": 56640,
      "time": 29.5,
      "velocity": 0.7716535433070866
    },
    {
      "duration": 1.5,
      "durationTicks": 2880,
      "midi": 72,
      "name": "C5",
      "ticks": 57600,
      "time": 30,
      "velocity": 0.7244094488188977
    }
  ]
}
