<svg xmlns="http://www.w3.org/2000/svg" id="comic" height="100%" width="100%" viewBox="0 0 500 600" role="img" aria-labelledby="comicTitle comicDesc">
  <title id="comicTitle">Planche de bande dessinée de quatre cases.</title>
  <desc id="comicDesc">Planche vide.</desc>
  <g id="planche">
    <g class="page">
      <rect fill="#fff" stroke="#000" stroke-width="2" x="0" y="0" height="600" width="500"/>
      <text font-family="Free Mono, monospace" font-size="24px" font-weight="700">
        <tspan x="60" y="30">LES NOUVELLES AVENTURES DE</tspan>
        <tspan x="110" y="60">GEORGES LA SAUCISSE</tspan>
      </text>
      <text font-family="Free Mono, monospace" font-size="16px" font-weight="700" x="15" y="90">par Desmu</text>
      <text font-family="Free Mono, monospace" font-size="16px" font-weight="700" x="290" y="90">georgeslasaucisse.fr</text>
      <text class="date" font-family="Free Mono, monospace" font-size="16px" font-weight="700" x="15" y="590">dd/mm/yyyy</text>
      <text class="title" font-family="Free Mono, monospace" font-size="16px" font-weight="700" x="455" y="590">NXX</text>
      <g transform="translate(15,100)">
        <rect fill="#fff" stroke="#000" stroke-width="2" x="0" y="0" height="230" width="230"/>
      </g>
      <g transform="translate(255,100)">
        <rect fill="#fff" stroke="#000" stroke-width="2" x="0" y="0" height="230" width="230"/>
      </g>
      <g transform="translate(15,340)">
        <rect fill="#fff" stroke="#000" stroke-width="2" x="0" y="0" height="230" width="230"/>
      </g>
      <g transform="translate(255,340)">
        <rect fill="#fff" stroke="#000" stroke-width="2" x="0" y="0" height="230" width="230"/>
      </g>
    </g>
  </g>
</svg>
