<svg xmlns="http://www.w3.org/2000/svg" viewBox="-1 -1 1922 202">
  <g class="montageenjavascriptetensvgsoussvgeorges">
    <text fill="#000" font-family="Free Mono, monospace" font-size="64px" x="100" y="64">Montage en Javascript et en SVG sous SVGeorges</text>
    <text fill="#000" font-family="Free Mono, monospace" font-size="64px" x="560" y="164" font-weight="900">https://gitlab.com/Desmu/svgeorges</text>
  </g>
</svg>
