<svg xmlns="http://www.w3.org/2000/svg" viewBox="-1 -1 1922 202">
  <g class="unevideorealiseepardesmu">
    <text fill="#000" font-family="Free Mono, monospace" font-size="64px" x="100" y="64">Une vidéo réalisée par Desmu</text>
    <text fill="#000" font-family="Free Mono, monospace" font-size="64px" x="100" y="164" font-weight="900">https://www.desmu.fr/</text>
  </g>
</svg>
