<svg xmlns="http://www.w3.org/2000/svg" viewBox="-1 -1 362 192">
  <g class="funkwhale_conte">
    <g class="freeze_move">
      <g class="embed_switcher btn btn-link-svg" data-api="/api/conte/maxime/1" data-max="22" tabindex="0">
        <rect fill="#000" x="35" y="0" height="20" width="60"/>
        <text fill="#fff" font-family="Free Mono, monospace" font-size="14px" font-weight="900" x="40" y="15">Maxime</text>
      </g>
      <g class="embed_switcher btn btn-link-svg" data-api="/api/conte/theo/1" data-max="22" tabindex="0">
        <rect fill="#000" x="95" y="0" height="20" width="115"/>
        <text fill="#fff" font-family="Free Mono, monospace" font-size="14px" font-weight="900" x="100" y="15">Théo-Gandalf</text>
      </g>
      <g class="embed_switcher btn btn-link-svg" data-api="/api/conte/raphael/1" data-max="22" data-order="1,2,3,4,17,5,7,6,8,74,10,11,12,15,14,13,16,2018,-50,2020,2021,-43,-1500,6879,1.23,10E16,-1,22" tabindex="0">
        <rect fill="#000" x="210" y="0" height="20" width="70"/>
        <text fill="#fff" font-family="Free Mono, monospace" font-size="14px" font-weight="900" x="215" y="15">Raphaël</text>
      </g>
      <g class="embed_switcher btn btn-link-svg" data-api="/api/conte/corentin/1" data-max="22" tabindex="0">
        <rect fill="#000" x="35" y="20" height="20" width="80"/>
        <text fill="#fff" font-family="Free Mono, monospace" font-size="14px" font-weight="900" x="40" y="35">Corentin</text>
      </g>
      <g class="embed_switcher btn btn-link-svg" data-api="/api/conte/florent/1" data-max="22" tabindex="0">
        <rect fill="#000" x="115" y="20" height="20" width="70"/>
        <text fill="#fff" font-family="Free Mono, monospace" font-size="14px" font-weight="900" x="120" y="35">Florent</text>
      </g>
      <rect fill="#fff" x="35" y="40" height="110" width="290"/>
      <polygon class="prev btn btn-link-svg" fill="#000" points="5,95 25,75 25,115" tabindex="0"/>
      <polygon class="next btn btn-link-svg" fill="#000" points="335,75 355,95 335,115" tabindex="0"/>
      <foreignObject x="35" y="40" height="150" width="290">
        <iframe src="" title="Conte écoutable sur Funkwhale" height="110px" width="290px" xmlns="http://www.w3.org/1999/xhtml"></iframe>
        <label><select title="Choix du numéro du chapitre" class="embed_selector"></select></label>
        <label>
          <select title="Créer un epub" class="embed_epub_generator d-none">
            <option value="">Créer un epub</option>
            <option value="base">Texte uniquement</option>
            <option value="images">Texte et images</option>
            <option value="sons">Texte et sons</option>
            <option value="total">Tout</option>
          </select>
        </label>
      </foreignObject>
    </g>
  </g>
</svg>
