<svg xmlns="http://www.w3.org/2000/svg" viewBox="-1 -1 1282 622">
  <rect class="paysage_mur_cave" fill="url(#paysage_mur_cave)" stroke="#000" x="0" y="0" width="1280" height="620"/>
  <text fill="#000" font-family="Free Mono, monospace" font-size="36px" font-weight="900" x="66" y="100">SALLE D'ARCADE</text>
  <text fill="#000" font-family="Free Mono, monospace" font-size="12px" font-weight="900" x="25" y="120">C'est malfamé ici, mais vu que je suis tout seul, ça va.</text>
  <pattern id="paysage_mur_cave" width="0.25" height="1">
    <rect fill="url(#paysage_mur_cave_motif)" stroke="transparent" x="0" y="0" width="320" height="620"/>
    <polyline class="lumiere_cave_qui_clignote" fill="#c0c0c0" points="80,620 160,0 240,620"/>
    <circle fill="#fff" stroke="#000" cx="160" cy="20" r="5"/>
    <polygon fill="#000" points="145,20 160,0 175,20"/>
  </pattern>
  <pattern id="paysage_mur_cave_motif" width="0.02" height="0.01">
    <rect fill="#808080" stroke="transparent" x="0" y="0" width="10" height="10"/>
    <line fill="#000" stroke="#c0c0c0" x1="10" y1="10" x2="0" y2="0"/>
  </pattern>
</svg>
