<svg xmlns="http://www.w3.org/2000/svg" viewBox="-1 -1 1282 102">
  <rect class="paysage_sol" fill="url(#paysage_sol)" stroke="#000" x="0" y="0" width="1280" height="100"/>
  <pattern id="paysage_sol" width="0.01" height="1">
    <rect fill="#fff" stroke="transparent" x="0" y="0" width="20" height="100"/>
    <line fill="#000" stroke="#000" x1="2" y1="98" x2="8" y2="2"/>
  </pattern>
</svg>
