<svg xmlns="http://www.w3.org/2000/svg" viewBox="-1 -1 1282 102">
  <rect class="paysage_tuiles" fill="url(#paysage_tuiles)" stroke="#000" x="0" y="0" width="1280" height="100"/>
  <pattern id="paysage_tuiles" width="0.01" height="0.1">
    <rect fill="#808080" stroke="transparent" x="0" y="0" width="13" height="11"/>
    <path fill="#808080" stroke="#000" d="M 0 0 C 0 10, 10 10, 10 0"/>
  </pattern>
</svg>
