{
  "title": {
    "portrait": "Arrêt de bus de la maison de Georges la Saucisse au format vertical.",
    "landscape": "Arrêt de bus de la maison de Georges la Saucisse au format horizontal."
  },
  "desc": {
    "portrait": "La pièce comporte un arrêt de bus avec les stations indiquées dessus (les liens vers les réseaux sociaux).",
    "landscape": "La pièce comporte une porte (menant vers le hall), un arrêt de bus avec les stations indiquées dessus (les liens vers les réseaux sociaux)."
  },
  "svgPaths": [
    {
      "name": "portrait_ciel_arret_bus",
      "asset": "vectors/backgrounds/portrait/ciel_arret_bus.svg",
      "coordinates": {
        "portrait": {
          "x": 0,
          "y": 0
        }
      }
    },
    {
      "name": "paysage_ciel_arret_bus",
      "asset": "vectors/backgrounds/landscape/ciel_arret_bus.svg",
      "coordinates": {
        "landscape": {
          "x": 0,
          "y": 0
        }
      }
    },
    {
      "name": "nuage",
      "function": "generateNuage",
      "coordinates": {
        "portrait": {
          "x": 50,
          "y": 50
        },
        "landscape": {
          "x": 200,
          "y": 150
        }
      }
    },
    {
      "name": "nuage",
      "function": "generateNuage",
      "coordinates": {
        "portrait": {
          "x": 150,
          "y": 150
        },
        "landscape": {
          "x": 400,
          "y": 100
        }
      }
    },
    {
      "name": "nuage",
      "function": "generateNuage",
      "coordinates": {
        "portrait": {
          "x": 250,
          "y": 100
        },
        "landscape": {
          "x": 600,
          "y": 50
        }
      }
    },
    {
      "name": "nuage",
      "function": "generateNuage",
      "coordinates": {
        "landscape": {
          "x": 800,
          "y": 100
        }
      }
    },
    {
      "name": "nuage",
      "function": "generateNuage",
      "coordinates": {
        "landscape": {
          "x": 1000,
          "y": 150
        }
      }
    },
    {
      "name": "portrait_terre",
      "asset": "vectors/backgrounds/portrait/terre.svg",
      "pattern": "randomCailloux",
      "coordinates": {
        "portrait": {
          "x": 0,
          "y": 430
        }
      }
    },
    {
      "name": "paysage_terre",
      "asset": "vectors/backgrounds/landscape/terre.svg",
      "pattern": "randomCailloux",
      "coordinates": {
        "landscape": {
          "x": 0,
          "y": 620
        }
      }
    },
    {
      "name": "entree_maison",
      "asset": "vectors/misc/entree_maison.svg",
      "coordinates": {
        "landscape": {
          "x": 0,
          "y": 100
        }
      }
    },
    {
      "name": "porte_exterieur",
      "asset": "vectors/misc/porte_exterieur.svg",
      "coordinates": {
        "landscape": {
          "x": 0,
          "y": 520
        }
      },
      "anchor": {
        "href": "/",
        "position": "ne"
      }
    },
    {
      "name": "arret_de_bus_mini",
      "asset": "vectors/misc/arret_de_bus_mini.svg",
      "coordinates": {
        "portrait": {
          "x": 80,
          "y": 130
        }
      },
      "anchor": {
        "popup": "popup_reseaux",
        "name": "Toutes directions",
        "position": "nw"
      }
    },
    {
      "name": "arret_de_bus",
      "asset": "vectors/misc/arret_de_bus.svg",
      "coordinates": {
        "landscape": {
          "x": 500,
          "y": 320
        }
      },
      "anchor": {
        "popup": "popup_reseaux",
        "name": "Toutes directions",
        "position": "nw"
      }
    },
    {
      "name": "popup_reseaux",
      "asset": "vectors/embeds/portrait/popup_reseaux.svg",
      "coordinates": {
        "portrait": {
          "x": 10,
          "y": 60
        }
      }
    },
    {
      "name": "popup_reseaux",
      "asset": "vectors/embeds/landscape/popup_reseaux.svg",
      "coordinates": {
        "landscape": {
          "x": 125,
          "y": 125
        }
      }
    },
    {
      "name": "georges",
      "asset": "components/Georges/Georges.svg",
      "animations": "components/Georges/Georges.css",
      "coordinates": {
        "portrait": {
          "x": 5,
          "y": 338
        },
        "landscape": {
          "x": 100,
          "y": 528
        }
      },
      "events": {
        "document": {
          "keydown": [
            "moveLeftRight",
            "showPhylactere"
          ],
          "keyup": [
            "stopMove"
          ],
          "mousedown": [
            "moveLeftRight"
          ],
          "mouseup": [
            "stopMove"
          ],
          "touchstart": [
            "moveLeftRight"
          ],
          "touchend": [
            "stopMove"
          ]
        },
        "this": {
          "click": [
            "showPhylactere"
          ]
        }
      },
      "anchorevents": {
        "keydown": [
          "clickAnchor",
          "showAnchor"
        ],
        "mousedown": [
          "showAnchor"
        ],
        "touchstart": [
          "showAnchor"
        ]
      }
    }
  ]
}
