<svg xmlns="http://www.w3.org/2000/svg" viewBox="-1 -1 1390 74">
  <g class="maximeleserpentferarepasser">
    <text fill="#000" font-family="Free Mono, monospace" font-size="72px" x="0" y="55">Maxime le Serpent Fer à Repasser</text>
  </g>
</svg>
