{
  "playlists": [
    {
      "id_playlist": "saison1",
      "nom_playlist": "Saison 1",
      "description_playlist": "Première année des vidéos, essentiellement des podcasts sans animations et avec un mauvais son.",
      "remarques_playlist": "",
      "date_debut_playlist": "2013-05-01",
      "date_fin_playlist": "2014-05-11",
      "longueur_playlist": 21,
      "urls_playlist": [
        "https://peertube.desmu.fr/videos/watch/playlist/e5da3887-c285-4e79-ac39-203db17fdeca"
      ]
    },
    {
      "id_playlist": "saison2",
      "nom_playlist": "Saison 2",
      "description_playlist": "Deuxième année des vidéos, avec beaucoup de concepts différents mélangés dans un ordre discutable.",
      "remarques_playlist": "",
      "date_debut_playlist": "2014-05-29",
      "date_fin_playlist": "2015-03-30",
      "longueur_playlist": 27,
      "urls_playlist": [
        "https://peertube.desmu.fr/videos/watch/playlist/3621834b-9790-4504-b95b-1eccb4fe982c"
      ]
    },
    {
      "id_playlist": "saison3",
      "nom_playlist": "Saison 3",
      "description_playlist": "Troisème année des vidéos et un peu après, réalisées en 4K 60fps, avec une tentative de websérie trans-formats.",
      "remarques_playlist": "",
      "date_debut_playlist": "2015-06-21",
      "date_fin_playlist": "2017-08-29",
      "longueur_playlist": 17,
      "urls_playlist": [
        "https://peertube.desmu.fr/videos/watch/playlist/a4b54a0d-4f45-4a08-9834-1401919c3a34"
      ]
    },
    {
      "id_playlist": "saison4",
      "nom_playlist": "Saison 4",
      "description_playlist": "Saison actuelle conçue avec du SVG, du Javascript et d'autres langages plus ou moins obscurs.",
      "remarques_playlist": "",
      "date_debut_playlist": "2018-08-28",
      "date_fin_playlist": "",
      "longueur_playlist": 2,
      "urls_playlist": [
        "https://peertube.desmu.fr/videos/watch/playlist/a3df8e8c-4421-4d54-89d4-724db2e6ea51"
      ]
    },
    {
      "id_playlist": "tops",
      "nom_playlist": "Tops",
      "description_playlist": "Micro-formats dynamiques pas dessinés et riches en anecdotes.",
      "remarques_playlist": "",
      "date_debut_playlist": "2015-07-12",
      "date_fin_playlist": "",
      "longueur_playlist": 7,
      "urls_playlist": [
        "https://peertube.desmu.fr/videos/watch/playlist/4ab76b43-39b2-495e-a9ea-ad68c317a920"
      ]
    },
    {
      "id_playlist": "contes",
      "nom_playlist": "Contes",
      "description_playlist": "Formats audio pas dynamiques pas dessinés et riches en histoires.",
      "remarques_playlist": "",
      "date_debut_playlist": "2015-08-24",
      "date_fin_playlist": "",
      "longueur_playlist": 7,
      "urls_playlist": [
        "https://peertube.desmu.fr/videos/watch/playlist/4664a309-e1df-4f04-ac61-e104158fd62b"
      ]
    },
    {
      "id_playlist": "grandscontes",
      "nom_playlist": "Grands Contes",
      "description_playlist": "Vidéos pour accompagner les grandes histoires écrites et écoutables ailleurs.",
      "remarques_playlist": "",
      "date_debut_playlist": "2017-12-01",
      "date_fin_playlist": "",
      "longueur_playlist": 15,
      "urls_playlist": [
        "https://peertube.desmu.fr/videos/watch/playlist/2dfb4a6f-fa6c-47e3-9a74-5b16e8f15899"
      ]
    },
    {
      "id_playlist": "microjeux",
      "nom_playlist": "Micro-Jeux",
      "description_playlist": "Vidéos relatives à la compilation de jeux pour console Playdate.",
      "remarques_playlist": "",
      "date_debut_playlist": "2022-06-16",
      "date_fin_playlist": "",
      "longueur_playlist": 3,
      "urls_playlist": [
        "https://peertube.desmu.fr/videos/watch/playlist/0632c5fb-9803-4f81-b679-a38237a989b8"
      ]
    },
    {
      "id_playlist": "annonces",
      "nom_playlist": "Annonces",
      "description_playlist": "Les vidéos d'actualité plus chiantes.",
      "remarques_playlist": "",
      "date_debut_playlist": "2013-06-29",
      "date_fin_playlist": "",
      "longueur_playlist": 26,
      "urls_playlist": [
        "https://peertube.desmu.fr/videos/watch/playlist/a68b2aed-5498-4bd6-9e89-0a5e59d6232b"
      ]
    }
  ]
}
