<svg xmlns="http://www.w3.org/2000/svg" viewBox="-1 -1 1922 982">
  <rect class="mur2" fill="url(#mur2)" stroke="#000" x="0" y="0" width="1920" height="980"/>
  <pattern id="mur2" width="0.01" height="0.01">
    <rect fill="#bbb" stroke="transparent" x="0" y="0" width="20" height="10"/>
    <line fill="#000" stroke="#000" x1="5" y1="5" x2="25" y2="15"/>
  </pattern>
</svg>
