<svg xmlns="http://www.w3.org/2000/svg" viewBox="-1 -1 362 642">
  <g class="affiche_ecolo">
    <rect fill="#fff" stroke="#000" x="0" y="0" height="640" width="360"/>
    <text fill="#000" font-family="Free Mono, monospace" font-size="30px" font-weight="900">
      <tspan x="30" y="30">On s'engage pour</tspan>
      <tspan x="25" y="60">l'environnement !</tspan>
    </text>
    <text fill="#000" font-family="Free Mono, monospace" font-size="20px" font-weight="900">
      <tspan x="10" y="130">On plante une plante verte</tspan>
      <tspan x="10" y="160">pour chaque feuille de</tspan>
      <tspan x="10" y="190">papier imprimée !</tspan>
    </text>
    <text fill="#000" font-family="Free Mono, monospace" font-size="15px" font-weight="900">
      <tspan x="10" y="350">On avait commencé en plantant des</tspan>
      <tspan x="10" y="370">arbres, mais on a reboisé un</tspan>
      <tspan x="10" y="390">désert en trois jours et tué</tspan>
      <tspan x="10" y="410">tout l'écosystème local.</tspan>
    </text>
    <text fill="#000" font-family="Free Mono, monospace" font-size="10px" font-weight="900">
      <tspan x="10" y="600">Mais les plantes vertes c'est bien aussi, non ?</tspan>
      <tspan x="10" y="610">Moi j'aime bien les ficus par exemple.</tspan>
    </text>
  </g>
</svg>
