<svg xmlns="http://www.w3.org/2000/svg" viewBox="-1 -1 362 432">
  <rect class="portrait_ciel_arret_bus" fill="#c0c0c0" x="0" y="0" width="360" height="430"/>
  <text fill="#000" font-family="Free Mono, monospace" font-size="24px" font-weight="900" x="90" y="30">ARRÊT DE BUS</text>
  <text fill="#000" font-family="Free Mono, monospace" font-size="10px" font-weight="900" x="75" y="50">Je peux aussi écrire dans le ciel.</text>
</svg>
